…
``` r
library(broom)
library(parsnip)

data_train_selected_pcs <- as.data.frame(data_train_selected_pcs)

#Fitting the logistic regression model
model_fit <- logistic_reg() %>%
  set_engine("glm") %>%
  fit(as.factor(condition) ~ ., data = data_train_selected_pcs, family = "binomial")

tidy(model_fit)
```

    ## # A tibble: 49 × 5
    ##    term                  estimate std.error statistic p.value
    ##    <chr>                    <dbl>     <dbl>     <dbl>   <dbl>
    ##  1 (Intercept)          -2.46e+ 1   131011. -1.88e- 4    1.00
    ##  2 PC1-100.669753612644  4.91e+ 1   185277.  2.65e- 4    1.00
    ##  3 PC1-2.37775419621684 -2.69e-14   185277. -1.45e-19    1   
    ##  4 PC1-39.1392375268399 -4.99e-14   185277. -2.69e-19    1   
    ##  5 PC1-9.62955839720086 -5.83e-15   185277. -3.15e-20    1   
    ##  6 PC119.0287120199584   4.91e+ 1   185277.  2.65e- 4    1.00
    ##  7 PC12.73379426679209  -1.44e-14   185277. -7.75e-20    1   
    ##  8 PC132.5721926050154   4.91e+ 1   185277.  2.65e- 4    1.00
    ##  9 PC198.4609141258824   4.91e+ 1   185277.  2.65e- 4    1.00
    ## 10 PC2-27.1763035517658 NA              NA  NA          NA   
    ## # ℹ 39 more rows
…
